ggplot2 minimal script
…
## [1] TRUE

Its actually a special type of list.

## [1] "gg"     "ggplot"

What are the 9 things in the list?

## [1] "data"        "layers"      "scales"      "mapping"     "theme"      
## [6] "coordinates" "facet"       "plot_env"    "labels"

So far weve constructed ggplots from data, layers (geoms) and aesthetic mappings. Well be looking at how to customize plots later, including changing the labels, scales and theme.

## # A tibble: 100 x 15
##    ID    Name  Sex   Smokes Height Weight Birth      State Grade Died 
##    <chr> <chr> <fct> <fct>   <dbl>  <dbl> <date>     <fct> <fct> <lgl>
##  1 AC/A Mich Male  Non-S   183.   76.6 1972-02-06 Geor 2     FALSE
##  2 AC/A Derek Male  Non-S   179.   80.4 1972-06-15 Colo 2     FALSE
##  3 AC/A Todd  Male  Non-S   169.   75.5 1972-07-09 New  2     FALSE
##  4 AC/A Rona Male  Non-S   176.   94.5 1972-08-17 Colo 1     FALSE
##  5 AC/A Chri Fema Non-S   164.   71.8 1973-06-12 Geor 2     TRUE 
##  6 AC/A Dana  Fema Smoker   158.   69.9 1973-07-01 Indi 2     FALSE
##  7 AC/A Erin  Fema Non-S   162.   68.8 1972-03-26 New  1     FALSE
##  8 AC/A Rach Fema Non-S   166.   70.4 1973-05-11 Colo 1     FALSE
##  9 AC/A Rona Male  Non-S   181.   76.9 1971-12-31 Geor 1     FALSE
## 10 AC/A Bryan Male  Non-S   167.   79.1 1973-07-19 New  2     FALSE
## #  with 90 more rows, and 5 more variables: Count <dbl>,
## #   Date.Entered.Study <date>, Age <fct>, BMI <dbl>, Overweight <lgl>
…
