summarise and combine
…
library( tidyverse)

Read the patients data into R enveronment

Read in the patients data frame using read_tsv from the readr package. read_tsv imports tab-delimited files (tsv = tab-separated values).

patients <- read_tsv("patient-data-cleaned.txt")

We can compute summary statistics for selected columns in our dataset using the summarise verb. For example, we could use summarise to calculate the average height of patients in our patients data.

Lets first remind ourselves what the patients dataset looks like.

patients

## # A tibble: 100 x 17
##    ID    Name  Race  Sex   Smokes Height Weight Birth      State Pet  
##    <chr> <chr> <chr> <chr> <chr>   <dbl>  <dbl> <date>     <chr> <chr>
##  1 AC/A Mich White Male  Non-S   183.   76.6 1972-02-06 Geor Dog  
##  2 AC/A Derek White Male  Non-S   179.   80.4 1972-06-15 Miss Dog  
##  3 AC/A Todd  Black Male  Non-S   169.   75.5 1972-07-09 Penn None 
##  4 AC/A Rona White Male  Non-S   176.   94.5 1972-08-17 Flor Cat  
##  5 AC/A Chri White Fema Non-S   164.   71.8 1973-06-12 Iowa  <NA> 
##  6 AC/A Dana  <NA>  Fema Smoker   158.   69.9 1973-07-01 Mary Dog  
##  7 AC/A Erin  White Fema Non-S   162.   68.8 1972-03-26 Penn None 
##  8 AC/A Rach White Fema Non-S   166.   70.4 1973-05-11 Nort None 
##  9 AC/A Rona White Male  Non-S   181.   76.9 1971-12-31 Loui Dog  
## 10 AC/A Bryan Hisp Male  Non-S   167.   79.1 1973-07-19 Nort None 
## # ... with 90 more rows, and 7 more variables: Grade <dbl>, Died <lgl>,
## #   Count <dbl>, Date.Entered.Study <date>, Age <dbl>, BMI <dbl>,
## #   Overweight <lgl>
…
summarise_at( patients, vars( columns), funs(mean))

## # A tibble: 1 x 3
##   Height Weight   Age
##    <dbl>  <dbl> <dbl>
## 1   168.   74.9  43.1

Mutating multiple columns

When looking at the help documentation for summarise_all, summarise_at and summarise_if, you may have noticed a set of related functions, mutate_all, mutate_at and mutate_if. These are very useful functions for applying the same operation to several columns within a table. For example, in the patients dataset the height is measured in centimetres but we can convert these to meters quite easily.

mutate_at( patients, vars( Height), funs( ./ 100))

## # A tibble: 100 x 17
##    ID    Name  Race  Sex   Smokes Height Weight Birth      State Pet  
##    <chr> <chr> <chr> <chr> <chr>   <dbl>  <dbl> <date>     <chr> <chr>
##  1 AC/A Mich White Male  Non-S   1.83   76.6 1972-02-06 Geor Dog  
##  2 AC/A Derek White Male  Non-S   1.79   80.4 1972-06-15 Miss Dog  
##  3 AC/A Todd  Black Male  Non-S   1.69   75.5 1972-07-09 Penn None 
##  4 AC/A Rona White Male  Non-S   1.76   94.5 1972-08-17 Flor Cat  
##  5 AC/A Chri White Fema Non-S   1.64   71.8 1973-06-12 Iowa  <NA> 
##  6 AC/A Dana  <NA>  Fema Smoker   1.58   69.9 1973-07-01 Mary Dog  
##  7 AC/A Erin  White Fema Non-S   1.62   68.8 1972-03-26 Penn None 
##  8 AC/A Rach White Fema Non-S   1.66   70.4 1973-05-11 Nort None 
##  9 AC/A Rona White Male  Non-S   1.81   76.9 1971-12-31 Loui Dog  
## 10 AC/A Bryan Hisp Male  Non-S   1.67   79.1 1973-07-19 Nort None 
## # ... with 90 more rows, and 7 more variables: Grade <dbl>, Died <lgl>,
## #   Count <dbl>, Date.Entered.Study <date>, Age <dbl>, BMI <dbl>,
## #   Overweight <lgl>

Here, weve had to specify the . character to represent the columns that were deviding by 100.

Rounding

mutate_at is particularly useful for rounding values to a specified number of decimal places or significant figures.

Now lets round the patients weight and height to 1 decimal place.

mutate_at(patients, vars(Height, Weight), funs(round(., digits = 1)))

## # A tibble: 100 x 17
##    ID    Name  Race  Sex   Smokes Height Weight Birth      State Pet  
##    <chr> <chr> <chr> <chr> <chr>   <dbl>  <dbl> <date>     <chr> <chr>
##  1 AC/A Mich White Male  Non-S   183.   76.6 1972-02-06 Geor Dog  
##  2 AC/A Derek White Male  Non-S   179.   80.4 1972-06-15 Miss Dog  
##  3 AC/A Todd  Black Male  Non-S   169.   75.5 1972-07-09 Penn None 
##  4 AC/A Rona White Male  Non-S   176.   94.5 1972-08-17 Flor Cat  
##  5 AC/A Chri White Fema Non-S   164.   71.8 1973-06-12 Iowa  <NA> 
##  6 AC/A Dana  <NA>  Fema Smoker   158.   69.9 1973-07-01 Mary Dog  
##  7 AC/A Erin  White Fema Non-S   162.   68.8 1972-03-26 Penn None 
##  8 AC/A Rach White Fema Non-S   166.   70.4 1973-05-11 Nort None 
##  9 AC/A Rona White Male  Non-S   181.   76.9 1971-12-31 Loui Dog  
## 10 AC/A Bryan Hisp Male  Non-S   167.   79.1 1973-07-19 Nort None 
## # ... with 90 more rows, and 7 more variables: Grade <dbl>, Died <lgl>,
## #   Count <dbl>, Date.Entered.Study <date>, Age <dbl>, BMI <dbl>,
## #   Overweight <lgl>
…
