Session 2 exercises - Solutions
…
Session 2 exercises - Solutions

Last modified: 30 May 2019

Part I  ggplot - Facets

The first part requires you to create plots with faceting. Each of the plots you are asked to create is shown below so that you can compare the end result with your own.

Read in the cleaned patients dataset, patient-data-cleaned.txt.

library(tidyverse)
patients <- read_tsv("data/patient-data-cleaned.txt")
patients

## # A tibble: 100 x 15
##    ID    Name  Sex   Smokes Height Weight Birth      State Grade Died 
##    <chr> <chr> <chr> <chr>   <dbl>  <dbl> <date>     <chr> <dbl> <lgl>
##  1 AC/A Mich Male  Non-S   183.   76.6 1972-02-06 Geor     2 FALSE
##  2 AC/A Derek Male  Non-S   179.   80.4 1972-06-15 Colo     2 FALSE
##  3 AC/A Todd  Male  Non-S   169.   75.5 1972-07-09 New      2 FALSE
##  4 AC/A Rona Male  Non-S   176.   94.5 1972-08-17 Colo     1 FALSE
##  5 AC/A Chri Fema Non-S   164.   71.8 1973-06-12 Geor     2 TRUE 
##  6 AC/A Dana  Fema Smoker   158.   69.9 1973-07-01 Indi     2 FALSE
##  7 AC/A Erin  Fema Non-S   162.   68.8 1972-03-26 New      1 FALSE
##  8 AC/A Rach Fema Non-S   166.   70.4 1973-05-11 Colo     1 FALSE
##  9 AC/A Rona Male  Non-S   181.   76.9 1971-12-31 Geor     1 FALSE
## 10 AC/A Bryan Male  Non-S   167.   79.1 1973-07-19 New      2 FALSE
## #  with 90 more rows, and 5 more variables: Count <dbl>,
## #   Date.Entered.Study <date>, Age <dbl>, BMI <dbl>, Overweight <lgl>
…
