Session 6 exercises - Solutions
…
1. Combining data tables

The exercise uses a more realistic dataset, building on the patients data frame weve already been working with.

The patients are all part of a diabetes study and have had their blood glucose concentration and diastolic blood pressure measured on several dates.

This part of the exercise combines grouping, summarisation and joining operations to connect the diabetes study data to the patients table weve already been working with.

Read the data from the file diabetes.txt into a new object.

library(tidyverse)
diabetes <- read_tsv("data/diabetes.txt")
diabetes

## # A tibble: 1,316 x 4
##    ID        Date       Glucose    BP
##    <chr>     <date>       <dbl> <dbl>
##  1 AC/AH/001 2011-03-07     100    98
##  2 AC/AH/001 2011-03-14     110    89
##  3 AC/AH/001 2011-03-24      94    88
##  4 AC/AH/001 2011-03-31     111    92
##  5 AC/AH/001 2011-04-03      94    83
##  6 AC/AH/001 2011-05-21     110    93
##  7 AC/AH/001 2011-06-24     105    79
##  8 AC/AH/001 2011-07-11      88    86
##  9 AC/AH/001 2011-07-11     101    92
## 10 AC/AH/001 2011-07-13     112    88
## #  with 1,306 more rows
…
